lab04-ctrl/xrun.log
xrun: 23.03-s005: (c) Copyright 1995-2023 Cadence Design Systems, Inc.
TOOL:	xrun	23.03-s005: Started on Sep 25, 2024 at 13:49:18 -03
xrun
	control.sv
	control_test.sv
Recompiling... reason: file './control.sv' is newer than expected.
	expected: Wed Sep 25 13:49:04 2024
	actual:   Wed Sep 25 13:49:14 2024
file: control.sv
	module worklib.control:sv
		errors: 0, warnings: 0
		Caching library 'worklib' ....... Done
	Elaborating the design hierarchy:
	Top level design units:
		typedefs
		$unit_0x0c7eeb9b
		control_test
	Building instance overlay tables: .................... Done
	Generating native compiled code:
		worklib.control_test:sv <0x3c8c6617>
			streams:  20, words: 18039
		worklib.control:sv <0x56dccb6e>
			streams:   1, words:  6603
	Building instance specific data structures.
	Loading native compiled code:     .................... Done
	Design hierarchy summary:
		                   Instances  Unique
		Modules:                   2       2
		Verilog packages:          1       1
		Registers:                26      26
		Scalar wires:             18       -
		Vectored wires:            4       -
		Always blocks:             2       2
		Initial blocks:            4       4
		Cont. assignments:         3       4
		Pseudo assignments:       11       -
		Compilation units:         1       1
		Simulation timescale:  100ps
	Writing initial simulation snapshot: worklib.control_test:sv
Loading snapshot worklib.control_test:sv .................... Done
xcelium> source /opt/cadence/XCELIUM2303/tools/xcelium/files/xmsimrc
xcelium> run
    0.0ns rst_=1 ph=inst_fetch 	 zer=0 op=HLT rd=1 l_ir=0 hlt=0 inc=0 l_ac=0 l_pc=0 wr=0
    5.0ns rst_=0 ph=inst_addr 	 zer=0 op=HLT rd=0 l_ir=0 hlt=0 inc=0 l_ac=0 l_pc=0 wr=0
   15.0ns rst_=1 ph=inst_addr 	 zer=0 op=HLT rd=0 l_ir=0 hlt=0 inc=0 l_ac=0 l_pc=0 wr=0
   20.0ns rst_=1 ph=inst_fetch 	 zer=0 op=HLT rd=1 l_ir=0 hlt=0 inc=0 l_ac=0 l_pc=0 wr=0
   30.0ns rst_=1 ph=inst_load 	 zer=0 op=HLT rd=1 l_ir=1 hlt=0 inc=0 l_ac=0 l_pc=0 wr=0
   40.0ns rst_=1 ph=idle 	 zer=0 op=HLT rd=1 l_ir=1 hlt=0 inc=0 l_ac=0 l_pc=0 wr=0
   50.0ns rst_=1 ph=op_addr 	 zer=0 op=HLT rd=0 l_ir=0 hlt=1 inc=1 l_ac=0 l_pc=0 wr=0
   60.0ns rst_=1 ph=op_fetch 	 zer=0 op=HLT rd=0 l_ir=0 hlt=0 inc=0 l_ac=0 l_pc=0 wr=0
   70.0ns rst_=1 ph=alu_op 	 zer=0 op=HLT rd=0 l_ir=0 hlt=0 inc=0 l_ac=0 l_pc=0 wr=0
   80.0ns rst_=1 ph=store 	 zer=0 op=HLT rd=0 l_ir=0 hlt=0 inc=0 l_ac=0 l_pc=0 wr=0
   90.0ns rst_=1 ph=inst_addr 	 zer=0 op=HLT rd=0 l_ir=0 hlt=0 inc=0 l_ac=0 l_pc=0 wr=0
  100.0ns rst_=1 ph=inst_fetch 	 zer=0 op=HLT rd=1 l_ir=0 hlt=0 inc=0 l_ac=0 l_pc=0 wr=0
  110.0ns rst_=1 ph=inst_load 	 zer=0 op=HLT rd=1 l_ir=1 hlt=0 inc=0 l_ac=0 l_pc=0 wr=0
  120.0ns rst_=1 ph=idle 	 zer=0 op=HLT rd=1 l_ir=1 hlt=0 inc=0 l_ac=0 l_pc=0 wr=0
  130.0ns rst_=1 ph=op_addr 	 zer=0 op=HLT rd=0 l_ir=0 hlt=1 inc=1 l_ac=0 l_pc=0 wr=0
  140.0ns rst_=1 ph=op_fetch 	 zer=0 op=HLT rd=0 l_ir=0 hlt=0 inc=0 l_ac=0 l_pc=0 wr=0
  150.0ns rst_=1 ph=alu_op 	 zer=0 op=HLT rd=0 l_ir=0 hlt=0 inc=0 l_ac=0 l_pc=0 wr=0
  160.0ns rst_=1 ph=store 	 zer=0 op=HLT rd=0 l_ir=0 hlt=0 inc=0 l_ac=0 l_pc=0 wr=0
  165.0ns rst_=1 ph=store 	 zer=0 op=SKZ rd=0 l_ir=0 hlt=0 inc=0 l_ac=0 l_pc=0 wr=0
  170.0ns rst_=1 ph=inst_addr 	 zer=0 op=SKZ rd=0 l_ir=0 hlt=0 inc=0 l_ac=0 l_pc=0 wr=0
  180.0ns rst_=1 ph=inst_fetch 	 zer=0 op=SKZ rd=1 l_ir=0 hlt=0 inc=0 l_ac=0 l_pc=0 wr=0
  190.0ns rst_=1 ph=inst_load 	 zer=0 op=SKZ rd=1 l_ir=1 hlt=0 inc=0 l_ac=0 l_pc=0 wr=0
  200.0ns rst_=1 ph=idle 	 zer=0 op=SKZ rd=1 l_ir=1 hlt=0 inc=0 l_ac=0 l_pc=0 wr=0
  210.0ns rst_=1 ph=op_addr 	 zer=0 op=SKZ rd=0 l_ir=0 hlt=0 inc=1 l_ac=0 l_pc=0 wr=0
  220.0ns rst_=1 ph=op_fetch 	 zer=0 op=SKZ rd=0 l_ir=0 hlt=0 inc=0 l_ac=0 l_pc=0 wr=0
  230.0ns rst_=1 ph=alu_op 	 zer=0 op=SKZ rd=0 l_ir=0 hlt=0 inc=0 l_ac=0 l_pc=0 wr=0
  240.0ns rst_=1 ph=store 	 zer=0 op=SKZ rd=0 l_ir=0 hlt=0 inc=0 l_ac=0 l_pc=0 wr=0
  245.0ns rst_=1 ph=store 	 zer=0 op=ADD rd=0 l_ir=0 hlt=0 inc=0 l_ac=0 l_pc=0 wr=0
  250.0ns rst_=1 ph=inst_addr 	 zer=0 op=ADD rd=0 l_ir=0 hlt=0 inc=0 l_ac=0 l_pc=0 wr=0
  260.0ns rst_=1 ph=inst_fetch 	 zer=0 op=ADD rd=1 l_ir=0 hlt=0 inc=0 l_ac=0 l_pc=0 wr=0
  270.0ns rst_=1 ph=inst_load 	 zer=0 op=ADD rd=1 l_ir=1 hlt=0 inc=0 l_ac=0 l_pc=0 wr=0
  280.0ns rst_=1 ph=idle 	 zer=0 op=ADD rd=1 l_ir=1 hlt=0 inc=0 l_ac=0 l_pc=0 wr=0
  290.0ns rst_=1 ph=op_addr 	 zer=0 op=ADD rd=0 l_ir=0 hlt=0 inc=1 l_ac=0 l_pc=0 wr=0
  300.0ns rst_=1 ph=op_fetch 	 zer=0 op=ADD rd=1 l_ir=0 hlt=0 inc=0 l_ac=0 l_pc=0 wr=0
  310.0ns rst_=1 ph=alu_op 	 zer=0 op=ADD rd=1 l_ir=0 hlt=0 inc=0 l_ac=1 l_pc=0 wr=0
  320.0ns rst_=1 ph=store 	 zer=0 op=ADD rd=1 l_ir=0 hlt=0 inc=0 l_ac=1 l_pc=0 wr=0
  325.0ns rst_=1 ph=store 	 zer=0 op=AND rd=1 l_ir=0 hlt=0 inc=0 l_ac=1 l_pc=0 wr=0
  330.0ns rst_=1 ph=inst_addr 	 zer=0 op=AND rd=0 l_ir=0 hlt=0 inc=0 l_ac=0 l_pc=0 wr=0
  340.0ns rst_=1 ph=inst_fetch 	 zer=0 op=AND rd=1 l_ir=0 hlt=0 inc=0 l_ac=0 l_pc=0 wr=0
  350.0ns rst_=1 ph=inst_load 	 zer=0 op=AND rd=1 l_ir=1 hlt=0 inc=0 l_ac=0 l_pc=0 wr=0
  360.0ns rst_=1 ph=idle 	 zer=0 op=AND rd=1 l_ir=1 hlt=0 inc=0 l_ac=0 l_pc=0 wr=0
  370.0ns rst_=1 ph=op_addr 	 zer=0 op=AND rd=0 l_ir=0 hlt=0 inc=1 l_ac=0 l_pc=0 wr=0
  380.0ns rst_=1 ph=op_fetch 	 zer=0 op=AND rd=1 l_ir=0 hlt=0 inc=0 l_ac=0 l_pc=0 wr=0
  390.0ns rst_=1 ph=alu_op 	 zer=0 op=AND rd=1 l_ir=0 hlt=0 inc=0 l_ac=1 l_pc=0 wr=0
  400.0ns rst_=1 ph=store 	 zer=0 op=AND rd=1 l_ir=0 hlt=0 inc=0 l_ac=1 l_pc=0 wr=0
  405.0ns rst_=1 ph=store 	 zer=0 op=XOR rd=1 l_ir=0 hlt=0 inc=0 l_ac=1 l_pc=0 wr=0
  410.0ns rst_=1 ph=inst_addr 	 zer=0 op=XOR rd=0 l_ir=0 hlt=0 inc=0 l_ac=0 l_pc=0 wr=0
  420.0ns rst_=1 ph=inst_fetch 	 zer=0 op=XOR rd=1 l_ir=0 hlt=0 inc=0 l_ac=0 l_pc=0 wr=0
  430.0ns rst_=1 ph=inst_load 	 zer=0 op=XOR rd=1 l_ir=1 hlt=0 inc=0 l_ac=0 l_pc=0 wr=0
  440.0ns rst_=1 ph=idle 	 zer=0 op=XOR rd=1 l_ir=1 hlt=0 inc=0 l_ac=0 l_pc=0 wr=0
  450.0ns rst_=1 ph=op_addr 	 zer=0 op=XOR rd=0 l_ir=0 hlt=0 inc=1 l_ac=0 l_pc=0 wr=0
  460.0ns rst_=1 ph=op_fetch 	 zer=0 op=XOR rd=1 l_ir=0 hlt=0 inc=0 l_ac=0 l_pc=0 wr=0
  470.0ns rst_=1 ph=alu_op 	 zer=0 op=XOR rd=1 l_ir=0 hlt=0 inc=0 l_ac=1 l_pc=0 wr=0
  480.0ns rst_=1 ph=store 	 zer=0 op=XOR rd=1 l_ir=0 hlt=0 inc=0 l_ac=1 l_pc=0 wr=0
  485.0ns rst_=1 ph=store 	 zer=0 op=LDA rd=1 l_ir=0 hlt=0 inc=0 l_ac=1 l_pc=0 wr=0
  490.0ns rst_=1 ph=inst_addr 	 zer=0 op=LDA rd=0 l_ir=0 hlt=0 inc=0 l_ac=0 l_pc=0 wr=0
  500.0ns rst_=1 ph=inst_fetch 	 zer=0 op=LDA rd=1 l_ir=0 hlt=0 inc=0 l_ac=0 l_pc=0 wr=0
  510.0ns rst_=1 ph=inst_load 	 zer=0 op=LDA rd=1 l_ir=1 hlt=0 inc=0 l_ac=0 l_pc=0 wr=0
  520.0ns rst_=1 ph=idle 	 zer=0 op=LDA rd=1 l_ir=1 hlt=0 inc=0 l_ac=0 l_pc=0 wr=0
  530.0ns rst_=1 ph=op_addr 	 zer=0 op=LDA rd=0 l_ir=0 hlt=0 inc=1 l_ac=0 l_pc=0 wr=0
  540.0ns rst_=1 ph=op_fetch 	 zer=0 op=LDA rd=1 l_ir=0 hlt=0 inc=0 l_ac=0 l_pc=0 wr=0
  550.0ns rst_=1 ph=alu_op 	 zer=0 op=LDA rd=1 l_ir=0 hlt=0 inc=0 l_ac=1 l_pc=0 wr=0
  560.0ns rst_=1 ph=store 	 zer=0 op=LDA rd=1 l_ir=0 hlt=0 inc=0 l_ac=1 l_pc=0 wr=0
  565.0ns rst_=1 ph=store 	 zer=0 op=STO rd=1 l_ir=0 hlt=0 inc=0 l_ac=1 l_pc=0 wr=0
  570.0ns rst_=1 ph=inst_addr 	 zer=0 op=STO rd=0 l_ir=0 hlt=0 inc=0 l_ac=0 l_pc=0 wr=0
  580.0ns rst_=1 ph=inst_fetch 	 zer=0 op=STO rd=1 l_ir=0 hlt=0 inc=0 l_ac=0 l_pc=0 wr=0
  590.0ns rst_=1 ph=inst_load 	 zer=0 op=STO rd=1 l_ir=1 hlt=0 inc=0 l_ac=0 l_pc=0 wr=0
  600.0ns rst_=1 ph=idle 	 zer=0 op=STO rd=1 l_ir=1 hlt=0 inc=0 l_ac=0 l_pc=0 wr=0
  610.0ns rst_=1 ph=op_addr 	 zer=0 op=STO rd=0 l_ir=0 hlt=0 inc=1 l_ac=0 l_pc=0 wr=0
  620.0ns rst_=1 ph=op_fetch 	 zer=0 op=STO rd=0 l_ir=0 hlt=0 inc=0 l_ac=0 l_pc=0 wr=0
  630.0ns rst_=1 ph=alu_op 	 zer=0 op=STO rd=0 l_ir=0 hlt=0 inc=0 l_ac=0 l_pc=0 wr=0
  640.0ns rst_=1 ph=store 	 zer=0 op=STO rd=0 l_ir=0 hlt=0 inc=0 l_ac=0 l_pc=0 wr=1
  645.0ns rst_=1 ph=store 	 zer=0 op=JMP rd=0 l_ir=0 hlt=0 inc=0 l_ac=0 l_pc=0 wr=1
  650.0ns rst_=1 ph=inst_addr 	 zer=0 op=JMP rd=0 l_ir=0 hlt=0 inc=0 l_ac=0 l_pc=0 wr=0
  660.0ns rst_=1 ph=inst_fetch 	 zer=0 op=JMP rd=1 l_ir=0 hlt=0 inc=0 l_ac=0 l_pc=0 wr=0
  670.0ns rst_=1 ph=inst_load 	 zer=0 op=JMP rd=1 l_ir=1 hlt=0 inc=0 l_ac=0 l_pc=0 wr=0
  680.0ns rst_=1 ph=idle 	 zer=0 op=JMP rd=1 l_ir=1 hlt=0 inc=0 l_ac=0 l_pc=0 wr=0
  690.0ns rst_=1 ph=op_addr 	 zer=0 op=JMP rd=0 l_ir=0 hlt=0 inc=1 l_ac=0 l_pc=0 wr=0
  700.0ns rst_=1 ph=op_fetch 	 zer=0 op=JMP rd=0 l_ir=0 hlt=0 inc=0 l_ac=0 l_pc=0 wr=0
  710.0ns rst_=1 ph=alu_op 	 zer=0 op=JMP rd=0 l_ir=0 hlt=0 inc=0 l_ac=0 l_pc=1 wr=0
  720.0ns rst_=1 ph=store 	 zer=0 op=JMP rd=0 l_ir=0 hlt=0 inc=1 l_ac=0 l_pc=1 wr=0
  725.0ns rst_=1 ph=store 	 zer=1 op=HLT rd=0 l_ir=0 hlt=0 inc=1 l_ac=0 l_pc=1 wr=0
  730.0ns rst_=1 ph=inst_addr 	 zer=1 op=HLT rd=0 l_ir=0 hlt=0 inc=0 l_ac=0 l_pc=0 wr=0
  740.0ns rst_=1 ph=inst_fetch 	 zer=1 op=HLT rd=1 l_ir=0 hlt=0 inc=0 l_ac=0 l_pc=0 wr=0
  750.0ns rst_=1 ph=inst_load 	 zer=1 op=HLT rd=1 l_ir=1 hlt=0 inc=0 l_ac=0 l_pc=0 wr=0
  760.0ns rst_=1 ph=idle 	 zer=1 op=HLT rd=1 l_ir=1 hlt=0 inc=0 l_ac=0 l_pc=0 wr=0
  770.0ns rst_=1 ph=op_addr 	 zer=1 op=HLT rd=0 l_ir=0 hlt=1 inc=1 l_ac=0 l_pc=0 wr=0
  780.0ns rst_=1 ph=op_fetch 	 zer=1 op=HLT rd=0 l_ir=0 hlt=0 inc=0 l_ac=0 l_pc=0 wr=0
  790.0ns rst_=1 ph=alu_op 	 zer=1 op=HLT rd=0 l_ir=0 hlt=0 inc=0 l_ac=0 l_pc=0 wr=0
  800.0ns rst_=1 ph=store 	 zer=1 op=HLT rd=0 l_ir=0 hlt=0 inc=0 l_ac=0 l_pc=0 wr=0
  805.0ns rst_=1 ph=store 	 zer=1 op=SKZ rd=0 l_ir=0 hlt=0 inc=0 l_ac=0 l_pc=0 wr=0
  810.0ns rst_=1 ph=inst_addr 	 zer=1 op=SKZ rd=0 l_ir=0 hlt=0 inc=0 l_ac=0 l_pc=0 wr=0
  820.0ns rst_=1 ph=inst_fetch 	 zer=1 op=SKZ rd=1 l_ir=0 hlt=0 inc=0 l_ac=0 l_pc=0 wr=0
  830.0ns rst_=1 ph=inst_load 	 zer=1 op=SKZ rd=1 l_ir=1 hlt=0 inc=0 l_ac=0 l_pc=0 wr=0
  840.0ns rst_=1 ph=idle 	 zer=1 op=SKZ rd=1 l_ir=1 hlt=0 inc=0 l_ac=0 l_pc=0 wr=0
  850.0ns rst_=1 ph=op_addr 	 zer=1 op=SKZ rd=0 l_ir=0 hlt=0 inc=1 l_ac=0 l_pc=0 wr=0
  860.0ns rst_=1 ph=op_fetch 	 zer=1 op=SKZ rd=0 l_ir=0 hlt=0 inc=0 l_ac=0 l_pc=0 wr=0
  870.0ns rst_=1 ph=alu_op 	 zer=1 op=SKZ rd=0 l_ir=0 hlt=0 inc=1 l_ac=0 l_pc=0 wr=0
  880.0ns rst_=1 ph=store 	 zer=1 op=SKZ rd=0 l_ir=0 hlt=0 inc=0 l_ac=0 l_pc=0 wr=0
  885.0ns rst_=1 ph=store 	 zer=1 op=ADD rd=0 l_ir=0 hlt=0 inc=0 l_ac=0 l_pc=0 wr=0
  890.0ns rst_=1 ph=inst_addr 	 zer=1 op=ADD rd=0 l_ir=0 hlt=0 inc=0 l_ac=0 l_pc=0 wr=0
  900.0ns rst_=1 ph=inst_fetch 	 zer=1 op=ADD rd=1 l_ir=0 hlt=0 inc=0 l_ac=0 l_pc=0 wr=0
  910.0ns rst_=1 ph=inst_load 	 zer=1 op=ADD rd=1 l_ir=1 hlt=0 inc=0 l_ac=0 l_pc=0 wr=0
  920.0ns rst_=1 ph=idle 	 zer=1 op=ADD rd=1 l_ir=1 hlt=0 inc=0 l_ac=0 l_pc=0 wr=0
  930.0ns rst_=1 ph=op_addr 	 zer=1 op=ADD rd=0 l_ir=0 hlt=0 inc=1 l_ac=0 l_pc=0 wr=0
  940.0ns rst_=1 ph=op_fetch 	 zer=1 op=ADD rd=1 l_ir=0 hlt=0 inc=0 l_ac=0 l_pc=0 wr=0
  950.0ns rst_=1 ph=alu_op 	 zer=1 op=ADD rd=1 l_ir=0 hlt=0 inc=0 l_ac=1 l_pc=0 wr=0
  960.0ns rst_=1 ph=store 	 zer=1 op=ADD rd=1 l_ir=0 hlt=0 inc=0 l_ac=1 l_pc=0 wr=0
  965.0ns rst_=1 ph=store 	 zer=1 op=AND rd=1 l_ir=0 hlt=0 inc=0 l_ac=1 l_pc=0 wr=0
  970.0ns rst_=1 ph=inst_addr 	 zer=1 op=AND rd=0 l_ir=0 hlt=0 inc=0 l_ac=0 l_pc=0 wr=0
  980.0ns rst_=1 ph=inst_fetch 	 zer=1 op=AND rd=1 l_ir=0 hlt=0 inc=0 l_ac=0 l_pc=0 wr=0
  990.0ns rst_=1 ph=inst_load 	 zer=1 op=AND rd=1 l_ir=1 hlt=0 inc=0 l_ac=0 l_pc=0 wr=0
 1000.0ns rst_=1 ph=idle 	 zer=1 op=AND rd=1 l_ir=1 hlt=0 inc=0 l_ac=0 l_pc=0 wr=0
 1010.0ns rst_=1 ph=op_addr 	 zer=1 op=AND rd=0 l_ir=0 hlt=0 inc=1 l_ac=0 l_pc=0 wr=0
 1020.0ns rst_=1 ph=op_fetch 	 zer=1 op=AND rd=1 l_ir=0 hlt=0 inc=0 l_ac=0 l_pc=0 wr=0
 1030.0ns rst_=1 ph=alu_op 	 zer=1 op=AND rd=1 l_ir=0 hlt=0 inc=0 l_ac=1 l_pc=0 wr=0
 1040.0ns rst_=1 ph=store 	 zer=1 op=AND rd=1 l_ir=0 hlt=0 inc=0 l_ac=1 l_pc=0 wr=0
 1045.0ns rst_=1 ph=store 	 zer=1 op=XOR rd=1 l_ir=0 hlt=0 inc=0 l_ac=1 l_pc=0 wr=0
 1050.0ns rst_=1 ph=inst_addr 	 zer=1 op=XOR rd=0 l_ir=0 hlt=0 inc=0 l_ac=0 l_pc=0 wr=0
 1060.0ns rst_=1 ph=inst_fetch 	 zer=1 op=XOR rd=1 l_ir=0 hlt=0 inc=0 l_ac=0 l_pc=0 wr=0
 1070.0ns rst_=1 ph=inst_load 	 zer=1 op=XOR rd=1 l_ir=1 hlt=0 inc=0 l_ac=0 l_pc=0 wr=0
 1080.0ns rst_=1 ph=idle 	 zer=1 op=XOR rd=1 l_ir=1 hlt=0 inc=0 l_ac=0 l_pc=0 wr=0
 1090.0ns rst_=1 ph=op_addr 	 zer=1 op=XOR rd=0 l_ir=0 hlt=0 inc=1 l_ac=0 l_pc=0 wr=0
 1100.0ns rst_=1 ph=op_fetch 	 zer=1 op=XOR rd=1 l_ir=0 hlt=0 inc=0 l_ac=0 l_pc=0 wr=0
 1110.0ns rst_=1 ph=alu_op 	 zer=1 op=XOR rd=1 l_ir=0 hlt=0 inc=0 l_ac=1 l_pc=0 wr=0
 1120.0ns rst_=1 ph=store 	 zer=1 op=XOR rd=1 l_ir=0 hlt=0 inc=0 l_ac=1 l_pc=0 wr=0
 1125.0ns rst_=1 ph=store 	 zer=1 op=LDA rd=1 l_ir=0 hlt=0 inc=0 l_ac=1 l_pc=0 wr=0
 1130.0ns rst_=1 ph=inst_addr 	 zer=1 op=LDA rd=0 l_ir=0 hlt=0 inc=0 l_ac=0 l_pc=0 wr=0
 1140.0ns rst_=1 ph=inst_fetch 	 zer=1 op=LDA rd=1 l_ir=0 hlt=0 inc=0 l_ac=0 l_pc=0 wr=0
 1150.0ns rst_=1 ph=inst_load 	 zer=1 op=LDA rd=1 l_ir=1 hlt=0 inc=0 l_ac=0 l_pc=0 wr=0
 1160.0ns rst_=1 ph=idle 	 zer=1 op=LDA rd=1 l_ir=1 hlt=0 inc=0 l_ac=0 l_pc=0 wr=0
 1170.0ns rst_=1 ph=op_addr 	 zer=1 op=LDA rd=0 l_ir=0 hlt=0 inc=1 l_ac=0 l_pc=0 wr=0
 1180.0ns rst_=1 ph=op_fetch 	 zer=1 op=LDA rd=1 l_ir=0 hlt=0 inc=0 l_ac=0 l_pc=0 wr=0
 1190.0ns rst_=1 ph=alu_op 	 zer=1 op=LDA rd=1 l_ir=0 hlt=0 inc=0 l_ac=1 l_pc=0 wr=0
 1200.0ns rst_=1 ph=store 	 zer=1 op=LDA rd=1 l_ir=0 hlt=0 inc=0 l_ac=1 l_pc=0 wr=0
 1205.0ns rst_=1 ph=store 	 zer=1 op=STO rd=1 l_ir=0 hlt=0 inc=0 l_ac=1 l_pc=0 wr=0
 1210.0ns rst_=1 ph=inst_addr 	 zer=1 op=STO rd=0 l_ir=0 hlt=0 inc=0 l_ac=0 l_pc=0 wr=0
 1220.0ns rst_=1 ph=inst_fetch 	 zer=1 op=STO rd=1 l_ir=0 hlt=0 inc=0 l_ac=0 l_pc=0 wr=0
 1230.0ns rst_=1 ph=inst_load 	 zer=1 op=STO rd=1 l_ir=1 hlt=0 inc=0 l_ac=0 l_pc=0 wr=0
 1240.0ns rst_=1 ph=idle 	 zer=1 op=STO rd=1 l_ir=1 hlt=0 inc=0 l_ac=0 l_pc=0 wr=0
 1250.0ns rst_=1 ph=op_addr 	 zer=1 op=STO rd=0 l_ir=0 hlt=0 inc=1 l_ac=0 l_pc=0 wr=0
 1260.0ns rst_=1 ph=op_fetch 	 zer=1 op=STO rd=0 l_ir=0 hlt=0 inc=0 l_ac=0 l_pc=0 wr=0
 1270.0ns rst_=1 ph=alu_op 	 zer=1 op=STO rd=0 l_ir=0 hlt=0 inc=0 l_ac=0 l_pc=0 wr=0
 1280.0ns rst_=1 ph=store 	 zer=1 op=STO rd=0 l_ir=0 hlt=0 inc=0 l_ac=0 l_pc=0 wr=1
 1285.0ns rst_=1 ph=store 	 zer=1 op=JMP rd=0 l_ir=0 hlt=0 inc=0 l_ac=0 l_pc=0 wr=1
 1290.0ns rst_=1 ph=inst_addr 	 zer=1 op=JMP rd=0 l_ir=0 hlt=0 inc=0 l_ac=0 l_pc=0 wr=0
 1300.0ns rst_=1 ph=inst_fetch 	 zer=1 op=JMP rd=1 l_ir=0 hlt=0 inc=0 l_ac=0 l_pc=0 wr=0
 1310.0ns rst_=1 ph=inst_load 	 zer=1 op=JMP rd=1 l_ir=1 hlt=0 inc=0 l_ac=0 l_pc=0 wr=0
 1320.0ns rst_=1 ph=idle 	 zer=1 op=JMP rd=1 l_ir=1 hlt=0 inc=0 l_ac=0 l_pc=0 wr=0
 1330.0ns rst_=1 ph=op_addr 	 zer=1 op=JMP rd=0 l_ir=0 hlt=0 inc=1 l_ac=0 l_pc=0 wr=0
 1340.0ns rst_=1 ph=op_fetch 	 zer=1 op=JMP rd=0 l_ir=0 hlt=0 inc=0 l_ac=0 l_pc=0 wr=0
 1350.0ns rst_=1 ph=alu_op 	 zer=1 op=JMP rd=0 l_ir=0 hlt=0 inc=0 l_ac=0 l_pc=1 wr=0
 1360.0ns rst_=1 ph=store 	 zer=1 op=JMP rd=0 l_ir=0 hlt=0 inc=1 l_ac=0 l_pc=1 wr=0
 1365.0ns rst_=1 ph=store 	 zer=0 op=HLT rd=0 l_ir=0 hlt=0 inc=1 l_ac=0 l_pc=1 wr=0
 1370.0ns rst_=1 ph=inst_addr 	 zer=0 op=HLT rd=0 l_ir=0 hlt=0 inc=0 l_ac=0 l_pc=0 wr=0
 1380.0ns rst_=1 ph=inst_fetch 	 zer=0 op=HLT rd=1 l_ir=0 hlt=0 inc=0 l_ac=0 l_pc=0 wr=0
 1390.0ns rst_=1 ph=inst_load 	 zer=0 op=HLT rd=1 l_ir=1 hlt=0 inc=0 l_ac=0 l_pc=0 wr=0
 1400.0ns rst_=1 ph=idle 	 zer=0 op=HLT rd=1 l_ir=1 hlt=0 inc=0 l_ac=0 l_pc=0 wr=0
 1410.0ns rst_=1 ph=op_addr 	 zer=0 op=HLT rd=0 l_ir=0 hlt=1 inc=1 l_ac=0 l_pc=0 wr=0
 1420.0ns rst_=1 ph=op_fetch 	 zer=0 op=HLT rd=0 l_ir=0 hlt=0 inc=0 l_ac=0 l_pc=0 wr=0
 1430.0ns rst_=1 ph=alu_op 	 zer=0 op=HLT rd=0 l_ir=0 hlt=0 inc=0 l_ac=0 l_pc=0 wr=0
 1440.0ns rst_=1 ph=store 	 zer=0 op=HLT rd=0 l_ir=0 hlt=0 inc=0 l_ac=0 l_pc=0 wr=0
 1445.0ns rst_=1 ph=store 	 zer=0 op=SKZ rd=0 l_ir=0 hlt=0 inc=0 l_ac=0 l_pc=0 wr=0
 1450.0ns rst_=1 ph=inst_addr 	 zer=0 op=SKZ rd=0 l_ir=0 hlt=0 inc=0 l_ac=0 l_pc=0 wr=0
 1460.0ns rst_=1 ph=inst_fetch 	 zer=0 op=SKZ rd=1 l_ir=0 hlt=0 inc=0 l_ac=0 l_pc=0 wr=0
 1470.0ns rst_=1 ph=inst_load 	 zer=0 op=SKZ rd=1 l_ir=1 hlt=0 inc=0 l_ac=0 l_pc=0 wr=0
 1480.0ns rst_=1 ph=idle 	 zer=0 op=SKZ rd=1 l_ir=1 hlt=0 inc=0 l_ac=0 l_pc=0 wr=0
 1490.0ns rst_=1 ph=op_addr 	 zer=0 op=SKZ rd=0 l_ir=0 hlt=0 inc=1 l_ac=0 l_pc=0 wr=0
 1500.0ns rst_=1 ph=op_fetch 	 zer=0 op=SKZ rd=0 l_ir=0 hlt=0 inc=0 l_ac=0 l_pc=0 wr=0
 1510.0ns rst_=1 ph=alu_op 	 zer=0 op=SKZ rd=0 l_ir=0 hlt=0 inc=0 l_ac=0 l_pc=0 wr=0
 1520.0ns rst_=1 ph=store 	 zer=0 op=SKZ rd=0 l_ir=0 hlt=0 inc=0 l_ac=0 l_pc=0 wr=0
 1525.0ns rst_=1 ph=store 	 zer=0 op=ADD rd=0 l_ir=0 hlt=0 inc=0 l_ac=0 l_pc=0 wr=0
 1530.0ns rst_=1 ph=inst_addr 	 zer=0 op=ADD rd=0 l_ir=0 hlt=0 inc=0 l_ac=0 l_pc=0 wr=0
 1540.0ns rst_=1 ph=inst_fetch 	 zer=0 op=ADD rd=1 l_ir=0 hlt=0 inc=0 l_ac=0 l_pc=0 wr=0
 1550.0ns rst_=1 ph=inst_load 	 zer=0 op=ADD rd=1 l_ir=1 hlt=0 inc=0 l_ac=0 l_pc=0 wr=0
 1560.0ns rst_=1 ph=idle 	 zer=0 op=ADD rd=1 l_ir=1 hlt=0 inc=0 l_ac=0 l_pc=0 wr=0
 1570.0ns rst_=1 ph=op_addr 	 zer=0 op=ADD rd=0 l_ir=0 hlt=0 inc=1 l_ac=0 l_pc=0 wr=0
 1580.0ns rst_=1 ph=op_fetch 	 zer=0 op=ADD rd=1 l_ir=0 hlt=0 inc=0 l_ac=0 l_pc=0 wr=0
 1590.0ns rst_=1 ph=alu_op 	 zer=0 op=ADD rd=1 l_ir=0 hlt=0 inc=0 l_ac=1 l_pc=0 wr=0
 1600.0ns rst_=1 ph=store 	 zer=0 op=ADD rd=1 l_ir=0 hlt=0 inc=0 l_ac=1 l_pc=0 wr=0
 1605.0ns rst_=1 ph=store 	 zer=0 op=AND rd=1 l_ir=0 hlt=0 inc=0 l_ac=1 l_pc=0 wr=0
 1610.0ns rst_=1 ph=inst_addr 	 zer=0 op=AND rd=0 l_ir=0 hlt=0 inc=0 l_ac=0 l_pc=0 wr=0
 1620.0ns rst_=1 ph=inst_fetch 	 zer=0 op=AND rd=1 l_ir=0 hlt=0 inc=0 l_ac=0 l_pc=0 wr=0
 1630.0ns rst_=1 ph=inst_load 	 zer=0 op=AND rd=1 l_ir=1 hlt=0 inc=0 l_ac=0 l_pc=0 wr=0
 1640.0ns rst_=1 ph=idle 	 zer=0 op=AND rd=1 l_ir=1 hlt=0 inc=0 l_ac=0 l_pc=0 wr=0
 1650.0ns rst_=1 ph=op_addr 	 zer=0 op=AND rd=0 l_ir=0 hlt=0 inc=1 l_ac=0 l_pc=0 wr=0
 1660.0ns rst_=1 ph=op_fetch 	 zer=0 op=AND rd=1 l_ir=0 hlt=0 inc=0 l_ac=0 l_pc=0 wr=0
 1670.0ns rst_=1 ph=alu_op 	 zer=0 op=AND rd=1 l_ir=0 hlt=0 inc=0 l_ac=1 l_pc=0 wr=0
 1680.0ns rst_=1 ph=store 	 zer=0 op=AND rd=1 l_ir=0 hlt=0 inc=0 l_ac=1 l_pc=0 wr=0
 1685.0ns rst_=1 ph=store 	 zer=0 op=XOR rd=1 l_ir=0 hlt=0 inc=0 l_ac=1 l_pc=0 wr=0
 1690.0ns rst_=1 ph=inst_addr 	 zer=0 op=XOR rd=0 l_ir=0 hlt=0 inc=0 l_ac=0 l_pc=0 wr=0
 1700.0ns rst_=1 ph=inst_fetch 	 zer=0 op=XOR rd=1 l_ir=0 hlt=0 inc=0 l_ac=0 l_pc=0 wr=0
 1710.0ns rst_=1 ph=inst_load 	 zer=0 op=XOR rd=1 l_ir=1 hlt=0 inc=0 l_ac=0 l_pc=0 wr=0
